<?xml version="1.0" encoding="utf-8"?>
<svg version="1.1" id="Layer_1"
xmlns="http://www.w3.org/2000/svg"
xmlns:xlink="http://www.w3.org/1999/xlink"
width="562px" height="4px"
xml:space="preserve">
<g id="PathID_212" transform="matrix(1, 0, 0, 1, -39.4, -87.25)">
<path style="fill:#000000;fill-opacity:1" d="M39.55 90.85L39.4 90.5L39.4 87.7Q39.4 87.5 39.55 87.4Q39.65 87.25 39.85 87.25L600.65 87.25Q600.85 87.25 601 87.4L601.15 87.7L601.15 90.5L601 90.85L600.65 91L39.85 91L39.55 90.85M600.2 90.05L600.2 88.2L40.35 88.2L40.35 90.05L600.2 90.05" />
<path style="fill:#00FF00;fill-opacity:1" d="M40.35 90.05L40.35 88.2L600.2 88.2L600.2 90.05L40.35 90.05" />
</g>
</svg>
