<?xml version="1.0" encoding="utf-8"?>
<svg version="1.1" id="Layer_1"
xmlns="http://www.w3.org/2000/svg"
xmlns:xlink="http://www.w3.org/1999/xlink"
width="93px" height="101px"
xml:space="preserve">
<g id="PathID_591" transform="matrix(1, 0, 0, 1, 98, 108.2)">
<path style="fill:#FF0000;fill-opacity:1" d="M-98 -7.8L-98 -108.2L-5.3 -108.2L-5.3 -7.8L-98 -7.8" />
</g>
</svg>
