<?xml version="1.0" encoding="utf-8"?>
<svg version="1.1" id="Layer_1"
xmlns="http://www.w3.org/2000/svg"
xmlns:xlink="http://www.w3.org/1999/xlink"
width="562px" height="68px"
xml:space="preserve">
<g id="PathID_219" transform="matrix(1, 0, 0, 1, -39.4, -133.7)">
<path style="fill:#FFFFFF;fill-opacity:1" d="M514.15 198.8L600.2 198.8L600.2 200.6L512.95 200.6L464.35 136.7L464.15 136.55L463.95 136.5L177.35 136.5L177.15 136.55L177 136.65L128.25 200.6L40.35 200.6L40.35 198.8L127.05 198.8L127.25 198.75L127.45 198.6L176.25 134.65L465.05 134.8L513.8 198.6L513.95 198.75L514.15 198.8" />
<path style="fill:#000000;fill-opacity:1" d="M601 198L601.15 198.3L601.15 201.05L601 201.4L600.65 201.55L512.7 201.55L512.5 201.5L512.35 201.35L463.75 137.45L177.6 137.45L128.9 201.35L128.7 201.5L128.5 201.55L39.85 201.55L39.55 201.4L39.4 201.05L39.4 198.3Q39.4 198.1 39.55 198Q39.65 197.85 39.85 197.85L126.8 197.85L175.65 133.85Q175.7 133.75 175.8 133.75L176 133.7L465.3 133.85L465.5 133.9L465.7 134L514.4 197.85L600.65 197.85Q600.85 197.85 601 198M513.95 198.75L513.8 198.6L465.05 134.8L176.25 134.65L127.45 198.6L127.25 198.75L127.05 198.8L40.35 198.8L40.35 200.6L128.25 200.6L177 136.65L177.15 136.55L177.35 136.5L463.95 136.5L464.15 136.55L464.35 136.7L512.95 200.6L600.2 200.6L600.2 198.8L514.15 198.8L513.95 198.75" />
</g>
</svg>
