<?xml version="1.0" encoding="utf-8"?>
<svg version="1.1" id="Layer_1"
xmlns="http://www.w3.org/2000/svg"
xmlns:xlink="http://www.w3.org/1999/xlink"
width="563px" height="5px"
xml:space="preserve">
<g id="PathID_154" transform="matrix(1, 0, 0, 1, 0, 0)">
<path style="fill:#000000;fill-opacity:1" d="M562 1L562 0L563 0L563 3.65L562.5 4.15L0.5 4.15L0 3.65L0 0L1 0L1 1L1 2.35L1 3.15L562 3.15L562 2.35L562 1" />
<path style="fill:#B40000;fill-opacity:1" d="M562 2.35L562 3.15L1 3.15L1 2.35L562 2.35" />
<path style="fill:#FF0000;fill-opacity:1" d="M562 1L562 2.35L1 2.35L1 1L562 1" />
<path style="fill:#9E0000;fill-opacity:1" d="M562 0L562 1L1 1L1 0L562 0" />
</g>
</svg>
