<?xml version="1.0" ?>
<svg xmlns="http://www.w3.org/2000/svg" width="100%" height="100%" viewBox="0 0 1 1" preserveAspectRatio="none">
  <linearGradient id="grad-ucgg-generated" gradientUnits="userSpaceOnUse" x1="0%" y1="0%" x2="0%" y2="100%">
    <stop offset="33%" stop-color="#ffffff" stop-opacity="1"/>
    <stop offset="69%" stop-color="#777777" stop-opacity="1"/>
  </linearGradient>
  <rect x="0" y="0" width="1" height="1" fill="url(#grad-ucgg-generated)" />
</svg>