<?xml version="1.0" encoding="utf-8"?>
<svg version="1.1" id="Layer_1"
xmlns="http://www.w3.org/2000/svg"
xmlns:xlink="http://www.w3.org/1999/xlink"
width="163px" height="32px"
xml:space="preserve">
<g id="PathID_587" transform="matrix(1, 0, 0, 1, 0, 0)">
<path style="fill:#FDF4D7;fill-opacity:0.670588" d="M0 0L163 0L163 32L0 32L0 0" />
</g>
</svg>
