<?xml version="1.0" encoding="utf-8"?>
<svg version="1.1" id="Layer_1"
xmlns="http://www.w3.org/2000/svg"
xmlns:xlink="http://www.w3.org/1999/xlink"
width="562px" height="68px"
xml:space="preserve">
<g id="PathID_209" transform="matrix(1, 0, 0, 1, -39.4, -246.85)">
<path style="fill:#00FFFF;fill-opacity:1" d="M359.55 313.85L359.55 312L391.4 312L391.4 313.85L359.55 313.85M501.15 266.35L477.45 297.55L475.75 296.6L499.45 265.45L501.15 266.35M584.15 249.6L584.15 247.8L600.2 247.8L600.2 249.6L584.15 249.6M165.75 297L164.15 297.9L140.4 266.7L142.05 265.85L165.75 297M56.4 249.6L40.35 249.6L40.35 247.8L56.4 247.8L56.4 249.6M279.9 312L279.9 313.85L248 313.85L248 312L279.9 312" />
<path style="fill:#000000;fill-opacity:1" d="M358.6 311.05L392.35 311.05L392.35 314.8L358.6 314.8L358.6 311.05M391.4 313.85L391.4 312L359.55 312L359.55 313.85L391.4 313.85M477.7 298.8L474.35 296.9L499.3 264.1L499.65 264.45L502.55 266.05L477.7 298.8M499.45 265.45L475.75 296.6L477.45 297.55L501.15 266.35L499.45 265.45M583.2 246.85L601.15 246.85L601.15 250.55L583.2 250.55L583.2 246.85M600.2 249.6L600.2 247.8L584.15 247.8L584.15 249.6L600.2 249.6M163.9 299.15L139 266.4L142.3 264.6L167.15 297.3L163.9 299.15M142.05 265.85L140.4 266.7L164.15 297.9L165.75 297L142.05 265.85M56.4 247.8L40.35 247.8L40.35 249.6L56.4 249.6L56.4 247.8M39.4 250.55L39.4 246.85L57.35 246.85L57.35 250.55L39.4 250.55M248 312L248 313.85L279.9 313.85L279.9 312L248 312M280.85 314.8L247.05 314.8L247.05 311.05L280.85 311.05L280.85 314.8" />
</g>
</svg>
