<?xml version="1.0" encoding="utf-8"?>
<svg version="1.1" id="Layer_1"
xmlns="http://www.w3.org/2000/svg"
xmlns:xlink="http://www.w3.org/1999/xlink"
width="76px" height="69px"
xml:space="preserve">
<g id="PathID_345" transform="matrix(1, 0, 0, 1, 0, 0)">
<path style="fill:#000000;fill-opacity:1" d="M51.15 24.05L49.7 24.6L49.75 17.35L48.05 17.35L47.95 22.85L47.05 24.1Q46.5 24.55 45.9 24.55L45.1 24.4L44.65 23.9L44.4 23.2L44.35 22.3L44.45 20.2L44.65 17.55L42.85 17.45L42.6 19.6L42.5 21.9L42.6 23.65L43.1 25.1L44.1 26.15Q44.7 26.5 45.65 26.5L47.2 26.25Q48 25.95 48.45 25.5L48.65 26.5L51.4 26.45L51.15 24.05M33.9 19.95L34.7 19.9L35.25 19.85L35.35 19.85L34.9 26.7L36.6 26.8L37 21.35L38.3 19.9Q38.95 19.45 39.45 19.45L40 19.65L40.3 20.2L40.4 20.9L40.45 21.55L40.3 23.7L40 26.8L41.65 26.95L42 24.4L42.15 21.8L42.1 20.55L41.9 19.45L41.55 18.65L41 18.1L40.25 17.8L39.45 17.7L38.15 17.95Q37.55 18.15 37.1 18.5L37.1 17.75L33.85 18.15L33.9 19.95M60.2 19.55L57.9 17.8Q56.8 17.3 55.95 17.3L54.9 17.5Q54.4 17.7 54 18.05Q53.65 18.4 53.45 18.9Q53.2 19.4 53.2 19.95Q53.2 20.75 53.75 21.5Q54.3 22.2 55.4 22.7Q56 22.95 56.45 23.25L57.3 23.8L57.85 24.3L58.05 24.8L57.9 25.2L57.55 25.5L57.1 25.7L56.8 25.75L55.95 25.5L55.2 24.85L54.5 24.1L53.95 23.55L51.7 24.8L52.7 26.2L53.75 25.65L54.4 26.5L55.25 27.1L56.2 27.45L57.2 27.6L58.35 27.4Q58.9 27.25 59.3 26.9L60 26.1L60.25 25Q60.25 24.2 59.75 23.4Q59.25 22.65 58.3 22.2L57.3 21.75L56.3 21.3L55.5 20.75L55.2 20.1L55.45 19.45Q55.7 19.15 56.05 19.15L56.75 19.3L57.55 19.7L58.25 20.2L58.95 20.75L60.2 19.55M44.5 34.75L44.9 40.1L43.6 39.95L41.85 40.2L40.35 41Q39.7 41.5 39.3 42.25Q38.95 42.95 38.95 43.9Q38.95 45.4 39.8 46.25Q40.7 47.15 42.25 47.15L44.1 46.7Q45.05 46.3 45.55 45.5L45.65 46.65L48.85 46.55L48.6 44.5L47 44.65L46.85 34.25L44.5 34.75M57.75 43.4L56.7 43.9L55.5 44.4L54.3 44.8L53.2 44.95L52.5 44.85L52 44.5Q51.75 44.25 51.65 43.8L51.55 42.8L58.2 41.8Q58.2 40.55 57.85 39.7L56.95 38.3L55.65 37.55L54 37.3L51.95 37.65Q51.05 38 50.45 38.65Q49.85 39.3 49.55 40.2Q49.2 41.15 49.2 42.25Q49.2 43.25 49.5 44.1L50.3 45.55L51.6 46.5L53.35 46.8L55.95 46.35Q57.35 45.85 58.7 44.95L57.75 43.4M40.85 44.65L40.65 44Q40.65 43.6 40.95 43.15L41.65 42.4L42.65 41.9L43.7 41.65L44.35 41.8L44.85 42.2L45.15 42.7L45.3 43.35L45.05 44.15L44.35 44.8L43.45 45.25L42.5 45.4L41.55 45.25L40.85 44.65M51.65 40.9L51.85 40.05L52.45 39.45L53.3 39.1L54.2 38.95L55 39.05L55.65 39.35L56.1 39.8L56.35 40.45L51.65 40.9M14.1 16.25L15.4 16.25L14.45 26.4L16.1 26.65L16.2 25.25Q17 26.05 17.95 26.4Q18.95 26.8 19.9 26.8L21.4 26.5L22.65 25.65L23.5 24.4L23.8 22.75Q23.8 21.85 23.45 21.1L22.55 19.8L21.25 18.9L19.6 18.6L18.25 18.8Q17.6 19 16.9 19.45L17.15 14.55L14.1 14.55L14.1 16.25M16.95 22.35Q17 21.9 17.2 21.55L17.7 21L18.35 20.7L19.1 20.6L19.95 20.75L20.75 21.1L21.3 21.65L21.5 22.4L21.3 23.5L20.8 24.25L20.15 24.7L19.4 24.85L18.5 24.65L17.75 24.2L17.15 23.4L16.95 22.45L16.95 22.35M29.45 27.4L31.1 27.15L32.4 26.4L33.2 25.25L33.5 23.85Q33.5 22.95 33.1 22Q32.65 21.05 31.6 20.1L30.35 19.25L28.95 19L27.15 19.4Q26.3 19.8 25.6 20.45L24.5 21.9Q24.1 22.7 24.1 23.55Q24.1 24.5 24.7 25.2Q25.25 25.95 26.1 26.4L27.85 27.15L29.45 27.4M28.9 25.45L27.85 25.35L26.85 25L26.05 24.4Q25.75 24 25.75 23.45Q25.75 23.05 26 22.6L26.7 21.8Q27.1 21.45 27.65 21.25L28.7 21.05Q29.2 21.05 29.7 21.35L30.55 22.05L31.1 22.95L31.3 23.85L31.1 24.55L30.55 25.05L29.8 25.35L28.9 25.45M17.7 37.45L18.1 36.95L18.2 36.45L18.1 36L17.8 35.65L17.4 35.4L16.9 35.3L16.4 35.4L16 35.7L15.75 36.1L15.65 36.55L15.75 37.05L16 37.45L16.4 37.7L16.85 37.8L17.3 37.75L17.7 37.45M18.6 39.9L19.4 39.85L19.95 39.8L20.05 39.8L19.6 46.65L21.3 46.75L21.7 41.3L23 39.85Q23.65 39.4 24.15 39.4L24.7 39.6L25 40.15L25.1 40.85L25.15 41.5L25 43.65L24.7 46.75L26.35 46.9L26.7 44.35L26.85 41.75L26.8 40.5L26.6 39.4L26.25 38.6L25.7 38.05L24.95 37.75L24.15 37.65L22.85 37.9L21.8 38.45L21.8 37.7L18.55 38.1L18.6 39.9M15.85 38.7L15.85 46.7L18.15 46.5L17.6 38.85L15.85 38.7M38.05 37.45L38.45 36.95L38.55 36.45L38.45 36L38.15 35.65L37.75 35.4L37.25 35.3L36.75 35.4L36.35 35.7L36.1 36.1L36 36.55L36.1 37.05L36.35 37.45L36.75 37.7L37.2 37.8L37.65 37.75L38.05 37.45M35.65 39.5Q34.45 38.3 33.35 37.75Q32.25 37.25 31.4 37.25L30.35 37.45Q29.85 37.65 29.45 38Q29.1 38.35 28.9 38.85Q28.65 39.35 28.65 39.9Q28.65 40.7 29.2 41.45Q29.75 42.15 30.85 42.65L31.9 43.2L32.75 43.75L33.3 44.25L33.5 44.75L33.35 45.15L33 45.45L32.55 45.65L32.25 45.7L31.4 45.45L30.65 44.8L29.95 44.05L29.4 43.5L27.15 44.75L28.15 46.15L29.2 45.6L29.85 46.45L30.7 47.05L31.65 47.4L32.65 47.55L33.8 47.35Q34.35 47.2 34.75 46.85L35.45 46.05L35.7 44.95Q35.7 44.15 35.2 43.35L33.75 42.15L32.75 41.7L31.75 41.25L30.95 40.7L30.65 40.05L30.9 39.4Q31.15 39.1 31.5 39.1L32.2 39.25L33 39.65L33.7 40.15L34.4 40.7L35.65 39.5M36.2 38.7L36.2 46.7L38.5 46.5L37.95 38.85L36.2 38.7M0 0L76 0L76 69L0 69L0 0" />
<path style="fill:#FF0000;fill-opacity:1" d="M51.4 26.45L48.65 26.5L48.45 25.5Q48 25.95 47.2 26.25L45.65 26.5Q44.7 26.5 44.1 26.15L43.1 25.1L42.6 23.65L42.5 21.9L42.6 19.6L42.85 17.45L44.65 17.55L44.45 20.2L44.35 22.3L44.4 23.2L44.65 23.9L45.1 24.4L45.9 24.55Q46.5 24.55 47.05 24.1L47.95 22.85L48.05 17.35L49.75 17.35L49.7 24.6L51.15 24.05L51.4 26.45M33.85 18.15L37.1 17.75L37.1 18.5Q37.55 18.15 38.15 17.95L39.45 17.7L40.25 17.8L41 18.1L41.55 18.65L41.9 19.45L42.1 20.55L42.15 21.8L42 24.4L41.65 26.95L40 26.8L40.3 23.7L40.45 21.55L40.4 20.9L40.3 20.2L40 19.65L39.45 19.45Q38.95 19.45 38.3 19.9L37 21.35L36.6 26.8L34.9 26.7L35.35 19.85L35.25 19.85L34.7 19.9L33.9 19.95L33.85 18.15M58.95 20.75L58.25 20.2L57.55 19.7L56.75 19.3L56.05 19.15Q55.7 19.15 55.45 19.45L55.2 20.1L55.5 20.75L56.3 21.3L57.3 21.75L58.3 22.2Q59.25 22.65 59.75 23.4Q60.25 24.2 60.25 25L60 26.1L59.3 26.9Q58.9 27.25 58.35 27.4L57.2 27.6L56.2 27.45L55.25 27.1L54.4 26.5L53.75 25.65L52.7 26.2L51.7 24.8L53.95 23.55L54.5 24.1L55.2 24.85L55.95 25.5L56.8 25.75L57.1 25.7L57.55 25.5L57.9 25.2L58.05 24.8L57.85 24.3L57.3 23.8L56.45 23.25Q56 22.95 55.4 22.7Q54.3 22.2 53.75 21.5Q53.2 20.75 53.2 19.95Q53.2 19.4 53.45 18.9Q53.65 18.4 54 18.05Q54.4 17.7 54.9 17.5L55.95 17.3Q56.8 17.3 57.9 17.8L60.2 19.55L58.95 20.75M46.85 34.25L47 44.65L48.6 44.5L48.85 46.55L45.65 46.65L45.55 45.5Q45.05 46.3 44.1 46.7L42.25 47.15Q40.7 47.15 39.8 46.25Q38.95 45.4 38.95 43.9Q38.95 42.95 39.3 42.25Q39.7 41.5 40.35 41L41.85 40.2L43.6 39.95L44.9 40.1L44.5 34.75L46.85 34.25M58.7 44.95Q57.35 45.85 55.95 46.35L53.35 46.8L51.6 46.5L50.3 45.55L49.5 44.1Q49.2 43.25 49.2 42.25Q49.2 41.15 49.55 40.2Q49.85 39.3 50.45 38.65Q51.05 38 51.95 37.65L54 37.3L55.65 37.55L56.95 38.3L57.85 39.7Q58.2 40.55 58.2 41.8L51.55 42.8L51.65 43.8Q51.75 44.25 52 44.5L52.5 44.85L53.2 44.95L54.3 44.8L55.5 44.4L56.7 43.9L57.75 43.4L58.7 44.95M41.55 45.25L42.5 45.4L43.45 45.25L44.35 44.8L45.05 44.15L45.3 43.35L45.15 42.7L44.85 42.2L44.35 41.8L43.7 41.65L42.65 41.9L41.65 42.4L40.95 43.15Q40.65 43.6 40.65 44L40.85 44.65L41.55 45.25M56.35 40.45L56.1 39.8L55.65 39.35L55 39.05L54.2 38.95L53.3 39.1L52.45 39.45L51.85 40.05L51.65 40.9L56.35 40.45M14.1 14.55L17.15 14.55L16.9 19.45Q17.6 19 18.25 18.8L19.6 18.6L21.25 18.9L22.55 19.8L23.45 21.1Q23.8 21.85 23.8 22.75L23.5 24.4L22.65 25.65L21.4 26.5L19.9 26.8Q18.95 26.8 17.95 26.4Q17 26.05 16.2 25.25L16.1 26.65L14.45 26.4L15.4 16.25L14.1 16.25L14.1 14.55M16.95 22.45L17.15 23.4L17.75 24.2L18.5 24.65L19.4 24.85L20.15 24.7L20.8 24.25L21.3 23.5L21.5 22.4L21.3 21.65L20.75 21.1L19.95 20.75L19.1 20.6L18.35 20.7L17.7 21L17.2 21.55Q17 21.9 16.95 22.35L16.95 22.45M27.85 27.15L26.1 26.4Q25.25 25.95 24.7 25.2Q24.1 24.5 24.1 23.55Q24.1 22.7 24.5 21.9L25.6 20.45Q26.3 19.8 27.15 19.4L28.95 19L30.35 19.25L31.6 20.1Q32.65 21.05 33.1 22Q33.5 22.95 33.5 23.85L33.2 25.25L32.4 26.4L31.1 27.15L29.45 27.4L27.85 27.15M29.8 25.35L30.55 25.05L31.1 24.55L31.3 23.85L31.1 22.95L30.55 22.05L29.7 21.35Q29.2 21.05 28.7 21.05L27.65 21.25Q27.1 21.45 26.7 21.8L26 22.6Q25.75 23.05 25.75 23.45Q25.75 24 26.05 24.4L26.85 25L27.85 25.35L28.9 25.45L29.8 25.35M17.3 37.75L16.85 37.8L16.4 37.7L16 37.45L15.75 37.05L15.65 36.55L15.75 36.1L16 35.7L16.4 35.4L16.9 35.3L17.4 35.4L17.8 35.65L18.1 36L18.2 36.45L18.1 36.95L17.7 37.45L17.3 37.75M18.55 38.1L21.8 37.7L21.8 38.45L22.85 37.9L24.15 37.65L24.95 37.75L25.7 38.05L26.25 38.6L26.6 39.4L26.8 40.5L26.85 41.75L26.7 44.35L26.35 46.9L24.7 46.75L25 43.65L25.15 41.5L25.1 40.85L25 40.15L24.7 39.6L24.15 39.4Q23.65 39.4 23 39.85L21.7 41.3L21.3 46.75L19.6 46.65L20.05 39.8L19.95 39.8L19.4 39.85L18.6 39.9L18.55 38.1M17.6 38.85L18.15 46.5L15.85 46.7L15.85 38.7L17.6 38.85M37.65 37.75L37.2 37.8L36.75 37.7L36.35 37.45L36.1 37.05L36 36.55L36.1 36.1L36.35 35.7L36.75 35.4L37.25 35.3L37.75 35.4L38.15 35.65L38.45 36L38.55 36.45L38.45 36.95L38.05 37.45L37.65 37.75M34.4 40.7L33.7 40.15L33 39.65L32.2 39.25L31.5 39.1Q31.15 39.1 30.9 39.4L30.65 40.05L30.95 40.7L31.75 41.25L32.75 41.7L33.75 42.15L35.2 43.35Q35.7 44.15 35.7 44.95L35.45 46.05L34.75 46.85Q34.35 47.2 33.8 47.35L32.65 47.55L31.65 47.4L30.7 47.05L29.85 46.45L29.2 45.6L28.15 46.15L27.15 44.75L29.4 43.5L29.95 44.05L30.65 44.8L31.4 45.45L32.25 45.7L32.55 45.65L33 45.45L33.35 45.15L33.5 44.75L33.3 44.25L32.75 43.75L31.9 43.2L30.85 42.65Q29.75 42.15 29.2 41.45Q28.65 40.7 28.65 39.9Q28.65 39.35 28.9 38.85Q29.1 38.35 29.45 38Q29.85 37.65 30.35 37.45L31.4 37.25Q32.25 37.25 33.35 37.75Q34.45 38.3 35.65 39.5L34.4 40.7M37.95 38.85L38.5 46.5L36.2 46.7L36.2 38.7L37.95 38.85" />
</g>
</svg>
