<?xml version="1.0" encoding="utf-8"?>
<svg version="1.1" id="Layer_1"
xmlns="http://www.w3.org/2000/svg"
xmlns:xlink="http://www.w3.org/1999/xlink"
width="562px" height="68px"
xml:space="preserve">
<g id="PathID_218" transform="matrix(1, 0, 0, 1, -39.4, -246.85)">
<path style="fill:#000000;fill-opacity:1" d="M513.95 249.65L514.15 249.6L600.2 249.6L600.2 247.8L512.95 247.8L464.35 311.75L464.15 311.9L463.95 311.95L177.35 311.95L177.15 311.9L177 311.75L128.25 247.8L40.35 247.8L40.35 249.6L127.15 249.6L127.35 249.65L127.55 249.75L176.25 313.75L465.05 313.75L513.8 249.75Q513.85 249.65 513.95 249.65M465.5 314.65L465.3 314.7L176 314.7L175.8 314.65L175.65 314.5L126.9 250.55L39.85 250.55L39.55 250.4L39.4 250.05L39.4 247.3Q39.4 247.1 39.55 247Q39.65 246.85 39.85 246.85L128.5 246.85L128.7 246.9L128.9 247L177.6 311L463.75 311L512.35 247.05L512.5 246.9L512.7 246.85L600.65 246.85Q600.85 246.85 601 247L601.15 247.3L601.15 250.05L601 250.4L600.65 250.55L514.4 250.55L465.7 314.5L465.5 314.65" />
<path style="fill:#00FFFF;fill-opacity:1" d="M513.8 249.75L465.05 313.75L176.25 313.75L127.55 249.75L127.35 249.65L127.15 249.6L40.35 249.6L40.35 247.8L128.25 247.8L177 311.75L177.15 311.9L177.35 311.95L463.95 311.95L464.15 311.9L464.35 311.75L512.95 247.8L600.2 247.8L600.2 249.6L514.15 249.6L513.95 249.65Q513.85 249.65 513.8 249.75" />
</g>
</svg>
