<?xml version="1.0" encoding="utf-8"?>
<svg version="1.1" id="Layer_1"
xmlns="http://www.w3.org/2000/svg"
xmlns:xlink="http://www.w3.org/1999/xlink"
width="76px" height="69px"
xml:space="preserve">
<g id="PathID_346" transform="matrix(1, 0, 0, 1, 0, 0)">
<path style="fill:#000000;fill-opacity:1" d="M61.95 28.65L61.95 18.65L60.75 18.65L60.75 22.2L59.9 21.5L58.75 21.25Q57.85 21.25 57.15 21.7Q56.4 22.15 56.05 23.05Q55.7 23.95 55.7 25.05Q55.7 26.15 56.1 27Q56.5 27.85 57.2 28.35Q57.95 28.8 58.8 28.8Q60.15 28.8 60.85 27.75L60.85 28.65L61.95 28.65M65.5 22.8Q66.05 22.25 66.9 22.25Q67.85 22.25 68.45 22.95L68.9 24.3L64.85 24.3Q64.9 23.35 65.5 22.8M68.15 27.45L67 27.8Q66.05 27.8 65.45 27.15Q64.85 26.55 64.8 25.35L70.2 25.35L70.2 25Q70.2 23.2 69.3 22.2Q68.35 21.25 66.9 21.25Q65.4 21.25 64.45 22.25Q63.5 23.25 63.5 25.1Q63.5 26.85 64.45 27.85Q65.4 28.8 66.95 28.8Q68.25 28.8 69.05 28.2Q69.85 27.6 70.15 26.45L68.9 26.3L68.15 27.45M46.45 28.65L46.45 24.7L46.65 23.35Q46.85 22.85 47.35 22.55L48.35 22.3Q49.1 22.3 49.5 22.7Q49.9 23.15 49.9 24.05L49.9 28.65L51.15 28.65L51.15 24.05L50.9 22.4L50.05 21.55L48.65 21.25Q47.3 21.25 46.45 22.2L46.45 18.65L45.2 18.65L45.2 28.65L46.45 28.65M54.25 20.05L54.25 18.65L53.05 18.65L53.05 20.05L54.25 20.05M54.25 28.65L54.25 21.4L53.05 21.4L53.05 28.65L54.25 28.65M57.5 22.9Q58.05 22.25 58.85 22.25Q59.7 22.25 60.3 22.95Q60.85 23.65 60.85 25.15Q60.85 26.5 60.3 27.15Q59.75 27.8 58.9 27.8Q58.1 27.8 57.55 27.1Q56.95 26.4 56.95 25.05Q56.95 23.6 57.5 22.9M43.95 44.25L45.4 38.65L46.85 44.25L48.15 44.25L50.4 37L49.2 37L47.55 42.6L46.1 37L44.85 37L43.65 41.25L43.3 42.75L41.7 37L40.45 37L42.65 44.25L43.95 44.25M19.95 28.65L19.95 24.7Q19.95 23.3 20.55 22.8Q21.1 22.3 21.9 22.3L22.75 22.5L23.25 23.1L23.4 24.25L23.4 28.65L24.6 28.65L24.6 24.2L24.55 23L24.15 22.1L23.35 21.45L22.15 21.25Q20.65 21.25 19.85 22.4L19.85 21.4L18.7 21.4L18.7 28.65L19.95 28.65M32.4 28.65L32.4 21.4L31.15 21.4L31.15 25.3L30.95 26.7L30.25 27.45L29.2 27.75L28.3 27.5Q27.9 27.2 27.8 26.7L27.75 25.4L27.75 21.4L26.5 21.4L26.5 25.9L26.55 27.05L26.95 27.95Q27.2 28.3 27.8 28.55L29 28.8Q30.45 28.8 31.3 27.6L31.3 28.65L32.4 28.65M34.8 28.25Q35.5 28.8 36.95 28.8L38.45 28.5L39.5 27.7L39.85 26.5L39.55 25.45L38.75 24.8L36.95 24.25L35.85 23.95L35.4 23.6L35.25 23.15Q35.25 22.8 35.6 22.5L36.8 22.25L37.9 22.55Q38.3 22.85 38.4 23.45L39.6 23.25L39.15 22.15Q38.85 21.7 38.2 21.45L36.7 21.25L35.65 21.4Q35.15 21.5 34.85 21.75L34.25 22.4L34.05 23.3Q34.05 23.85 34.3 24.3L35.1 25L37 25.55L38.25 26Q38.6 26.25 38.6 26.65Q38.6 27.1 38.2 27.45Q37.8 27.8 36.95 27.8Q36.1 27.8 35.6 27.4Q35.15 27 35.05 26.3L33.85 26.5Q34.05 27.65 34.8 28.25M4.85 22.95Q5.4 22.25 6.25 22.25Q7.05 22.25 7.6 22.9Q8.15 23.6 8.15 25Q8.15 26.4 7.55 27.1Q7 27.8 6.15 27.8Q5.2 27.8 4.6 26.85Q4.25 26.25 4.25 24.95Q4.25 23.65 4.85 22.95M4.25 27.75Q5 28.8 6.25 28.8Q7.55 28.8 8.5 27.8Q9.4 26.8 9.4 24.9L9.2 23.45L8.6 22.25L7.6 21.5L6.35 21.25Q5.15 21.25 4.35 22.2L4.35 18.65L3.1 18.65L3.1 28.65L4.25 28.65L4.25 27.75M12.35 22.95Q12.95 22.25 13.85 22.25Q14.8 22.25 15.4 22.95Q16 23.65 16 25Q16 26.4 15.4 27.1Q14.8 27.8 13.85 27.8Q12.95 27.8 12.35 27.1Q11.75 26.4 11.75 25Q11.75 23.65 12.35 22.95M11.4 27.85Q12.35 28.8 13.85 28.8L15.65 28.35Q16.45 27.95 16.85 27.15Q17.25 26.3 17.25 24.9Q17.25 23.2 16.3 22.2Q15.35 21.25 13.85 21.25Q12.5 21.25 11.6 22.05Q10.45 23 10.45 25Q10.45 26.85 11.4 27.85M31.65 44.25L31.65 37L30.45 37L30.45 44.25L31.65 44.25M31.65 35.65L31.65 34.25L30.45 34.25L30.45 35.65L31.65 35.65M26.6 44.25L29.35 37L28.05 37L26.45 41.4L26 42.8L25.55 41.35L24 37L22.7 37L25.45 44.25L26.6 44.25M37.75 43.05L36.6 43.4Q35.65 43.4 35.05 42.75Q34.45 42.15 34.4 40.95L39.8 40.95L39.8 40.6Q39.8 38.8 38.9 37.8Q37.95 36.85 36.5 36.85Q35 36.85 34.05 37.85Q33.1 38.85 33.1 40.7Q33.1 42.45 34.05 43.45Q35 44.4 36.55 44.4Q37.85 44.4 38.65 43.8Q39.45 43.2 39.75 42.05L38.5 41.9L37.75 43.05M35.1 38.4Q35.65 37.85 36.5 37.85Q37.45 37.85 38.05 38.55L38.5 39.9L34.45 39.9Q34.5 38.95 35.1 38.4M0 0L76 0L76 69L0 69L0 0" />
<path style="fill:#66FFFF;fill-opacity:1" d="M60.85 28.65L60.85 27.75Q60.15 28.8 58.8 28.8Q57.95 28.8 57.2 28.35Q56.5 27.85 56.1 27Q55.7 26.15 55.7 25.05Q55.7 23.95 56.05 23.05Q56.4 22.15 57.15 21.7Q57.85 21.25 58.75 21.25L59.9 21.5L60.75 22.2L60.75 18.65L61.95 18.65L61.95 28.65L60.85 28.65M64.85 24.3L68.9 24.3L68.45 22.95Q67.85 22.25 66.9 22.25Q66.05 22.25 65.5 22.8Q64.9 23.35 64.85 24.3M68.9 26.3L70.15 26.45Q69.85 27.6 69.05 28.2Q68.25 28.8 66.95 28.8Q65.4 28.8 64.45 27.85Q63.5 26.85 63.5 25.1Q63.5 23.25 64.45 22.25Q65.4 21.25 66.9 21.25Q68.35 21.25 69.3 22.2Q70.2 23.2 70.2 25L70.2 25.35L64.8 25.35Q64.85 26.55 65.45 27.15Q66.05 27.8 67 27.8L68.15 27.45L68.9 26.3M45.2 28.65L45.2 18.65L46.45 18.65L46.45 22.2Q47.3 21.25 48.65 21.25L50.05 21.55L50.9 22.4L51.15 24.05L51.15 28.65L49.9 28.65L49.9 24.05Q49.9 23.15 49.5 22.7Q49.1 22.3 48.35 22.3L47.35 22.55Q46.85 22.85 46.65 23.35L46.45 24.7L46.45 28.65L45.2 28.65M53.05 20.05L53.05 18.65L54.25 18.65L54.25 20.05L53.05 20.05M53.05 28.65L53.05 21.4L54.25 21.4L54.25 28.65L53.05 28.65M56.95 25.05Q56.95 26.4 57.55 27.1Q58.1 27.8 58.9 27.8Q59.75 27.8 60.3 27.15Q60.85 26.5 60.85 25.15Q60.85 23.65 60.3 22.95Q59.7 22.25 58.85 22.25Q58.05 22.25 57.5 22.9Q56.95 23.6 56.95 25.05M42.65 44.25L40.45 37L41.7 37L43.3 42.75L43.65 41.25L44.85 37L46.1 37L47.55 42.6L49.2 37L50.4 37L48.15 44.25L46.85 44.25L45.4 38.65L43.95 44.25L42.65 44.25M18.7 28.65L18.7 21.4L19.85 21.4L19.85 22.4Q20.65 21.25 22.15 21.25L23.35 21.45L24.15 22.1L24.55 23L24.6 24.2L24.6 28.65L23.4 28.65L23.4 24.25L23.25 23.1L22.75 22.5L21.9 22.3Q21.1 22.3 20.55 22.8Q19.95 23.3 19.95 24.7L19.95 28.65L18.7 28.65M31.3 28.65L31.3 27.6Q30.45 28.8 29 28.8L27.8 28.55Q27.2 28.3 26.95 27.95L26.55 27.05L26.5 25.9L26.5 21.4L27.75 21.4L27.75 25.4L27.8 26.7Q27.9 27.2 28.3 27.5L29.2 27.75L30.25 27.45L30.95 26.7L31.15 25.3L31.15 21.4L32.4 21.4L32.4 28.65L31.3 28.65M33.85 26.5L35.05 26.3Q35.15 27 35.6 27.4Q36.1 27.8 36.95 27.8Q37.8 27.8 38.2 27.45Q38.6 27.1 38.6 26.65Q38.6 26.25 38.25 26L37 25.55L35.1 25L34.3 24.3Q34.05 23.85 34.05 23.3L34.25 22.4L34.85 21.75Q35.15 21.5 35.65 21.4L36.7 21.25L38.2 21.45Q38.85 21.7 39.15 22.15L39.6 23.25L38.4 23.45Q38.3 22.85 37.9 22.55L36.8 22.25L35.6 22.5Q35.25 22.8 35.25 23.15L35.4 23.6L35.85 23.95L36.95 24.25L38.75 24.8L39.55 25.45L39.85 26.5L39.5 27.7L38.45 28.5L36.95 28.8Q35.5 28.8 34.8 28.25Q34.05 27.65 33.85 26.5M4.25 24.95Q4.25 26.25 4.6 26.85Q5.2 27.8 6.15 27.8Q7 27.8 7.55 27.1Q8.15 26.4 8.15 25Q8.15 23.6 7.6 22.9Q7.05 22.25 6.25 22.25Q5.4 22.25 4.85 22.95Q4.25 23.65 4.25 24.95M4.25 28.65L3.1 28.65L3.1 18.65L4.35 18.65L4.35 22.2Q5.15 21.25 6.35 21.25L7.6 21.5L8.6 22.25L9.2 23.45L9.4 24.9Q9.4 26.8 8.5 27.8Q7.55 28.8 6.25 28.8Q5 28.8 4.25 27.75L4.25 28.65M11.75 25Q11.75 26.4 12.35 27.1Q12.95 27.8 13.85 27.8Q14.8 27.8 15.4 27.1Q16 26.4 16 25Q16 23.65 15.4 22.95Q14.8 22.25 13.85 22.25Q12.95 22.25 12.35 22.95Q11.75 23.65 11.75 25M10.45 25Q10.45 23 11.6 22.05Q12.5 21.25 13.85 21.25Q15.35 21.25 16.3 22.2Q17.25 23.2 17.25 24.9Q17.25 26.3 16.85 27.15Q16.45 27.95 15.65 28.35L13.85 28.8Q12.35 28.8 11.4 27.85Q10.45 26.85 10.45 25M30.45 44.25L30.45 37L31.65 37L31.65 44.25L30.45 44.25M30.45 35.65L30.45 34.25L31.65 34.25L31.65 35.65L30.45 35.65M25.45 44.25L22.7 37L24 37L25.55 41.35L26 42.8L26.45 41.4L28.05 37L29.35 37L26.6 44.25L25.45 44.25M38.5 41.9L39.75 42.05Q39.45 43.2 38.65 43.8Q37.85 44.4 36.55 44.4Q35 44.4 34.05 43.45Q33.1 42.45 33.1 40.7Q33.1 38.85 34.05 37.85Q35 36.85 36.5 36.85Q37.95 36.85 38.9 37.8Q39.8 38.8 39.8 40.6L39.8 40.95L34.4 40.95Q34.45 42.15 35.05 42.75Q35.65 43.4 36.6 43.4L37.75 43.05L38.5 41.9M34.45 39.9L38.5 39.9L38.05 38.55Q37.45 37.85 36.5 37.85Q35.65 37.85 35.1 38.4Q34.5 38.95 34.45 39.9" />
</g>
</svg>
