<?xml version="1.0" encoding="utf-8"?>
<svg version="1.1" id="Layer_1"
xmlns="http://www.w3.org/2000/svg"
xmlns:xlink="http://www.w3.org/1999/xlink"
width="608px" height="32px"
xml:space="preserve">
<g id="PathID_222" transform="matrix(1, 0, 0, 1, -60, -300)">
<path style="fill:#FF0000;fill-opacity:1" d="M92 300L92 332L60 332L60 300L92 300" />
<path style="fill:#FF0000;fill-opacity:1" d="M668 332L636 332L636 300L668 300L668 332" />
</g>
</svg>
