<?xml version="1.0" encoding="utf-8"?>
<svg version="1.1" id="Layer_1"
xmlns="http://www.w3.org/2000/svg"
xmlns:xlink="http://www.w3.org/1999/xlink"
width="561px" height="4px"
xml:space="preserve">
<g id="PathID_213" transform="matrix(1, 0, 0, 1, -39.5, -225.8)">
<path style="fill:#E90908;fill-opacity:1" d="M40 226.3L600 226.3L600 229.3L40 229.3L40 226.3" />
<path style="fill:none;stroke-width:1;stroke-linecap:round;stroke-linejoin:miter;stroke-miterlimit:3;stroke:#000000;stroke-opacity:1" d="M40 226.3L600 226.3L600 229.3L40 229.3L40 226.3z" />
</g>
</svg>
