<?xml version="1.0" encoding="utf-8"?>
<svg version="1.1" id="Layer_1"
xmlns="http://www.w3.org/2000/svg"
xmlns:xlink="http://www.w3.org/1999/xlink"
width="545px" height="4px"
xml:space="preserve">
<g id="PathID_145" transform="matrix(1, 0, 0, 1, 0.45, 0.45)">
<path style="fill:#FF0000;fill-opacity:1" d="M526.6 0L543.6 0L543.6 2.8L526.6 2.8L526.6 0M456.35 2.8L423.5 2.8L423.5 0L456.35 0L456.35 2.8M344.1 2.8L311.3 2.8L311.3 0L344.1 0L344.1 2.8M199.05 0L231.9 0L231.9 2.8L199.05 2.8L199.05 0M119.65 2.8L86.8 2.8L86.8 0L119.65 0L119.65 2.8M17 2.8L0 2.8L0 0L17 0L17 2.8" />
<path style="fill:none;stroke-width:0.95;stroke-linecap:butt;stroke-linejoin:miter;stroke-miterlimit:22;stroke:#000000;stroke-opacity:1" d="M526.6 0L543.6 0L543.6 2.8L526.6 2.8L526.6 0z" />
<path style="fill:none;stroke-width:0.95;stroke-linecap:butt;stroke-linejoin:miter;stroke-miterlimit:22;stroke:#000000;stroke-opacity:1" d="M456.35 2.8L423.5 2.8L423.5 0L456.35 0L456.35 2.8z" />
<path style="fill:none;stroke-width:0.95;stroke-linecap:butt;stroke-linejoin:miter;stroke-miterlimit:22;stroke:#000000;stroke-opacity:1" d="M344.1 2.8L311.3 2.8L311.3 0L344.1 0L344.1 2.8z" />
<path style="fill:none;stroke-width:0.95;stroke-linecap:butt;stroke-linejoin:miter;stroke-miterlimit:22;stroke:#000000;stroke-opacity:1" d="M199.05 0L231.9 0L231.9 2.8L199.05 2.8L199.05 0z" />
<path style="fill:none;stroke-width:0.95;stroke-linecap:butt;stroke-linejoin:miter;stroke-miterlimit:22;stroke:#000000;stroke-opacity:1" d="M119.65 2.8L86.8 2.8L86.8 0L119.65 0L119.65 2.8z" />
<path style="fill:none;stroke-width:0.95;stroke-linecap:butt;stroke-linejoin:miter;stroke-miterlimit:22;stroke:#000000;stroke-opacity:1" d="M17 2.8L0 2.8L0 0L17 0L17 2.8z" />
</g>
</svg>
