<?xml version="1.0" encoding="utf-8"?>
<svg version="1.1" id="Layer_1"
xmlns="http://www.w3.org/2000/svg"
xmlns:xlink="http://www.w3.org/1999/xlink"
width="546px" height="58px"
xml:space="preserve">
<g id="PathID_153" transform="matrix(1, 0, 0, 1, 1.45, -16.75)">
<path style="fill:#FFFFFF;fill-opacity:1" d="M543.6 63.75L543.6 66.55L526.6 66.55L526.6 63.75L543.6 63.75M427.2 43.2L455.55 71.55L453.3 73.25L424.9 44.9L427.2 43.2M343.6 20L310.8 20L310.8 17.2L343.6 17.2L343.6 20M232.1 17.2L232.1 20L199.25 20L199.25 17.2L232.1 17.2M118.55 44.9L90.15 73.25L87.9 71.55L116.25 43.2L118.55 44.9M16 63.75L16 66.55L-1 66.55L-1 63.75L16 63.75" />
<path style="fill:none;stroke-width:0.95;stroke-linecap:butt;stroke-linejoin:miter;stroke-miterlimit:22;stroke:#000000;stroke-opacity:1" d="M543.6 63.75L543.6 66.55L526.6 66.55L526.6 63.75L543.6 63.75z" />
<path style="fill:none;stroke-width:0.95;stroke-linecap:butt;stroke-linejoin:miter;stroke-miterlimit:22;stroke:#000000;stroke-opacity:1" d="M424.9 44.9L453.3 73.25L455.55 71.55L427.2 43.2L424.9 44.9z" />
<path style="fill:none;stroke-width:0.95;stroke-linecap:butt;stroke-linejoin:miter;stroke-miterlimit:22;stroke:#000000;stroke-opacity:1" d="M343.6 20L310.8 20L310.8 17.2L343.6 17.2L343.6 20z" />
<path style="fill:none;stroke-width:0.95;stroke-linecap:butt;stroke-linejoin:miter;stroke-miterlimit:22;stroke:#000000;stroke-opacity:1" d="M232.1 17.2L232.1 20L199.25 20L199.25 17.2L232.1 17.2z" />
<path style="fill:none;stroke-width:0.95;stroke-linecap:butt;stroke-linejoin:miter;stroke-miterlimit:22;stroke:#000000;stroke-opacity:1" d="M118.55 44.9L90.15 73.25L87.9 71.55L116.25 43.2L118.55 44.9z" />
<path style="fill:none;stroke-width:0.95;stroke-linecap:butt;stroke-linejoin:miter;stroke-miterlimit:22;stroke:#000000;stroke-opacity:1" d="M16 63.75L16 66.55L-1 66.55L-1 63.75L16 63.75z" />
</g>
</svg>
