<?xml version="1.0" encoding="utf-8"?>
<svg version="1.1" id="Layer_1"
xmlns="http://www.w3.org/2000/svg"
xmlns:xlink="http://www.w3.org/1999/xlink"
width="563px" height="173px"
xml:space="preserve">
<g id="PathID_158" transform="matrix(1, 0, 0, 1, 0, 0)">
<path style="fill:#000000;fill-opacity:1" d="M562 169.2L562 168.2L563 168.2L563 171.8L562.5 172.3L492.5 172.3Q486.4 172.3 480.7 169.9L480.7 169.95Q475 167.6 470.7 163.25L319.4 11.95Q315.6 8.2 310.7 6.15Q305.75 4.1 300.45 4.1L262.85 4.1Q257.6 4.1 252.65 6.15Q247.7 8.2 243.95 11.95L92.65 163.25Q88.35 167.6 82.65 169.95L82.65 169.9Q76.9 172.3 70.8 172.3L0.5 172.3L0 171.8L0 168.2L1 168.2L1 169.2L1 170.55L1 171.3L70.8 171.3Q76.7 171.3 82.25 169Q87.75 166.75 91.95 162.55L243.25 11.25Q247.1 7.4 252.25 5.25Q257.4 3.1 262.85 3.1L300.45 3.1Q305.95 3.1 311.1 5.25Q316.2 7.4 320.1 11.25L471.4 162.55Q475.6 166.75 481.1 169Q486.6 171.3 492.5 171.3L562 171.3L562 170.55L562 169.2" />
<path style="fill:#ADAD00;fill-opacity:1" d="M70.8 170.55Q76.55 170.55 81.95 168.35Q87.3 166.1 91.4 162L242.7 10.7Q246.7 6.75 252 4.55Q257.25 2.35 262.85 2.35L300.45 2.35Q306.1 2.35 311.4 4.55Q316.7 6.75 320.65 10.7L471.95 162Q476.05 166.1 481.4 168.35Q486.75 170.55 492.5 170.55L562 170.55L562 171.3L492.5 171.3Q486.6 171.3 481.1 169Q475.6 166.75 471.4 162.55L320.1 11.25Q316.2 7.4 311.1 5.25Q305.95 3.1 300.45 3.1L262.85 3.1Q257.4 3.1 252.25 5.25Q247.1 7.4 243.25 11.25L91.95 162.55Q87.75 166.75 82.25 169Q76.7 171.3 70.8 171.3L1 171.3L1 170.55L70.8 170.55" />
<path style="fill:#FFFF00;fill-opacity:1" d="M562 169.2L562 170.55L492.5 170.55Q486.75 170.55 481.4 168.35Q476.05 166.1 471.95 162L320.65 10.7Q316.7 6.75 311.4 4.55Q306.1 2.35 300.45 2.35L262.85 2.35Q257.25 2.35 252 4.55Q246.7 6.75 242.7 10.7L91.4 162Q87.3 166.1 81.95 168.35Q76.55 170.55 70.8 170.55L1 170.55L1 169.2L70.8 169.2Q76.3 169.2 81.45 167.05L81.45 167.1Q86.6 165 90.45 161.05L241.75 9.75Q245.95 5.6 251.45 3.35L251.45 3.3Q256.95 1 262.85 1L300.45 1Q306.35 1 311.9 3.3L311.9 3.35Q317.4 5.6 321.6 9.75L472.9 161.05Q476.75 164.9 481.9 167.05Q487.05 169.2 492.5 169.2L562 169.2" />
<path style="fill:#A7A700;fill-opacity:1" d="M70.8 168.2Q76.1 168.2 81.05 166.15Q86 164.1 89.75 160.35L241.05 9.05Q245.35 4.75 251.05 2.4Q256.75 0 262.85 0L300.45 0Q306.55 0 312.3 2.4Q318 4.75 322.3 9.05L473.6 160.35Q477.35 164.1 482.3 166.15Q487.25 168.2 492.5 168.2L562 168.2L562 169.2L492.5 169.2Q487.05 169.2 481.9 167.05Q476.75 164.9 472.9 161.05L321.6 9.75Q317.4 5.6 311.9 3.35L311.9 3.3Q306.35 1 300.45 1L262.85 1Q256.95 1 251.45 3.3L251.45 3.35Q245.95 5.6 241.75 9.75L90.45 161.05Q86.6 165 81.45 167.1L81.45 167.05Q76.3 169.2 70.8 169.2L1 169.2L1 168.2L70.8 168.2" />
</g>
</svg>
