<?xml version="1.0" encoding="utf-8"?>
<svg version="1.1" id="Layer_1"
xmlns="http://www.w3.org/2000/svg"
xmlns:xlink="http://www.w3.org/1999/xlink"
width="563px" height="51px"
xml:space="preserve">
<g id="PathID_161" transform="matrix(1, 0, 0, 1, 0, 0)">
<path style="fill:#000000;fill-opacity:1" d="M562 1L562 0L563 0L563 3.65L562.5 4.15L467.65 4.15Q461.7 4.15 456.05 6.5L456.05 6.45Q450.45 8.75 446.2 13L419.1 40.1Q414.35 44.9 407.95 47.55Q401.6 50.2 394.75 50.2L168.25 50.2Q161.45 50.2 155.05 47.55Q148.65 44.9 143.85 40.1L116.75 13Q112.5 8.75 106.9 6.45Q101.3 4.15 95.3 4.15L0.5 4.15L0 3.65L0 0L1 0L1 1L1 2.35L1 3.15L95.3 3.15Q101.5 3.15 107.3 5.55Q113.1 7.95 117.45 12.3L144.55 39.4Q149.25 44.1 155.45 46.65Q161.65 49.2 168.25 49.2L394.75 49.2Q401.4 49.2 407.55 46.65Q413.75 44.1 418.4 39.4L445.5 12.3Q449.85 7.95 455.65 5.55Q461.5 3.15 467.65 3.15L562 3.15L562 2.35L562 1" />
<path style="fill:#00ABAB;fill-opacity:1" d="M95.3 2.35Q101.6 2.35 107.6 4.85Q113.55 7.3 118 11.75L145.1 38.85Q149.7 43.45 155.75 45.95Q161.8 48.45 168.25 48.45L394.75 48.45Q401.2 48.45 407.25 45.95Q413.25 43.45 417.85 38.85L444.95 11.75Q449.4 7.3 455.4 4.85Q461.35 2.35 467.65 2.35L562 2.35L562 3.15L467.65 3.15Q461.5 3.15 455.65 5.55Q449.85 7.95 445.5 12.3L418.4 39.4Q413.75 44.1 407.55 46.65Q401.4 49.2 394.75 49.2L168.25 49.2Q161.65 49.2 155.45 46.65Q149.25 44.1 144.55 39.4L117.45 12.3Q113.1 7.95 107.3 5.55Q101.5 3.15 95.3 3.15L1 3.15L1 2.35L95.3 2.35" />
<path style="fill:#00FFFF;fill-opacity:1" d="M562 1L562 2.35L467.65 2.35Q461.35 2.35 455.4 4.85Q449.4 7.3 444.95 11.75L417.85 38.85Q413.25 43.45 407.25 45.95Q401.2 48.45 394.75 48.45L168.25 48.45Q161.8 48.45 155.75 45.95Q149.7 43.45 145.1 38.85L118 11.75Q113.55 7.3 107.6 4.85Q101.6 2.35 95.3 2.35L1 2.35L1 1L95.3 1Q101.9 1 108.1 3.55Q114.25 6.1 118.95 10.8L146.05 37.9Q150.4 42.25 156.25 44.7Q162.05 47.1 168.25 47.1L394.75 47.1Q400.95 47.1 406.75 44.7Q412.55 42.25 416.9 37.9L444 10.8Q448.7 6.1 454.85 3.55Q461.05 1 467.65 1L562 1" />
<path style="fill:#00AEAE;fill-opacity:1" d="M95.3 0Q102.1 0 108.5 2.65Q114.85 5.3 119.65 10.1L146.75 37.2Q151 41.45 156.65 43.8Q162.25 46.1 168.25 46.1L394.75 46.1Q400.75 46.1 406.35 43.8Q411.95 41.45 416.2 37.2L443.3 10.1Q448.1 5.3 454.45 2.65Q460.85 0 467.65 0L562 0L562 1L467.65 1Q461.05 1 454.85 3.55Q448.7 6.1 444 10.8L416.9 37.9Q412.55 42.25 406.75 44.7Q400.95 47.1 394.75 47.1L168.25 47.1Q162.05 47.1 156.25 44.7Q150.4 42.25 146.05 37.9L118.95 10.8Q114.25 6.1 108.1 3.55Q101.9 1 95.3 1L1 1L1 0L95.3 0" />
</g>
</svg>
