<?xml version="1.0" encoding="utf-8"?>
<svg version="1.1" id="Layer_1"
xmlns="http://www.w3.org/2000/svg"
xmlns:xlink="http://www.w3.org/1999/xlink"
width="561px" height="4px"
xml:space="preserve">
<g id="PathID_216" transform="matrix(1, 0, 0, 1, -39.5, -89.5)">
<path style="fill:#0EF60E;fill-opacity:1" d="M40 90L600 90L600 93L40 93L40 90" />
<path style="fill:none;stroke-width:1;stroke-linecap:round;stroke-linejoin:miter;stroke-miterlimit:3;stroke:#000000;stroke-opacity:1" d="M40 90L600 90L600 93L40 93L40 90z" />
</g>
</svg>
