<?xml version="1.0" encoding="utf-8"?>
<svg version="1.1" id="Layer_1"
xmlns="http://www.w3.org/2000/svg"
xmlns:xlink="http://www.w3.org/1999/xlink"
width="561px" height="210px"
xml:space="preserve">
<g id="PathID_220" transform="matrix(1, 0, 0, 1, -39.5, 319.9)">
<path style="fill:#E8E81F;fill-opacity:1" d="M131.95 -308.85Q129.5 -312.05 126.95 -313.6Q124.15 -315.3 120.6 -315.35L40 -315.35L40 -318.35L120.6 -318.35Q124.8 -318.2 128.05 -316.4Q130.9 -314.8 133.6 -311.55L282.4 -119.65Q286.55 -113.95 291.4 -114L350.3 -114Q355.15 -113.95 359.3 -119.65L508.1 -311.55Q510.8 -314.8 513.65 -316.4Q516.9 -318.2 521.1 -318.35L600 -318.35L600 -315.35L521.1 -315.35Q517.55 -315.3 514.75 -313.6Q512.2 -312.05 509.75 -308.85L361.35 -117.1Q356.2 -111 351.05 -111L290.65 -111Q285.5 -111 280.35 -117.1L131.95 -308.85" />
<path style="fill:none;stroke-width:1;stroke-linecap:round;stroke-linejoin:miter;stroke-miterlimit:3;stroke:#000000;stroke-opacity:1" d="M280.35 -117.1Q285.5 -111 290.65 -111L351.05 -111Q356.2 -111 361.35 -117.1L509.75 -308.85Q512.2 -312.05 514.75 -313.6Q517.55 -315.3 521.1 -315.35L600 -315.35L600 -318.35L521.1 -318.35Q516.9 -318.2 513.65 -316.4Q510.8 -314.8 508.1 -311.55L359.3 -119.65Q355.15 -113.95 350.3 -114L291.4 -114Q286.55 -113.95 282.4 -119.65L133.6 -311.55Q130.9 -314.8 128.05 -316.4Q124.8 -318.2 120.6 -318.35L40 -318.35L40 -315.35L120.6 -315.35Q124.15 -315.3 126.95 -313.6Q129.5 -312.05 131.95 -308.85L280.35 -117.1z" />
</g>
</svg>
