<?xml version="1.0" encoding="utf-8"?>
<svg version="1.1" id="Layer_1"
xmlns="http://www.w3.org/2000/svg"
xmlns:xlink="http://www.w3.org/1999/xlink"
width="545px" height="40px"
xml:space="preserve">
<g id="PathID_150" transform="matrix(1, 0, 0, 1, 0.45, -24)">
<path style="fill:#E400FF;fill-opacity:1" d="M543.6 27.2L526.6 27.2L526.6 24.45L543.6 24.45L543.6 27.2M456.35 27.2L423.5 27.2L423.5 24.45L456.35 24.45L456.35 27.2M337 33.55L339.35 35.5L312.35 62.45L310.05 60.5L337 33.55M232.9 60.5L230.6 62.45L203.6 35.5L205.95 33.55L232.9 60.5M119.65 27.2L86.8 27.2L86.8 24.45L119.65 24.45L119.65 27.2M17 27.2L0 27.2L0 24.45L17 24.45L17 27.2" />
<path style="fill:none;stroke-width:0.95;stroke-linecap:butt;stroke-linejoin:miter;stroke-miterlimit:22;stroke:#000000;stroke-opacity:1" d="M543.6 27.2L526.6 27.2L526.6 24.45L543.6 24.45L543.6 27.2z" />
<path style="fill:none;stroke-width:0.95;stroke-linecap:butt;stroke-linejoin:miter;stroke-miterlimit:22;stroke:#000000;stroke-opacity:1" d="M456.35 27.2L423.5 27.2L423.5 24.45L456.35 24.45L456.35 27.2z" />
<path style="fill:none;stroke-width:0.95;stroke-linecap:butt;stroke-linejoin:miter;stroke-miterlimit:22;stroke:#000000;stroke-opacity:1" d="M337 33.55L339.35 35.5L312.35 62.45L310.05 60.5L337 33.55z" />
<path style="fill:none;stroke-width:0.95;stroke-linecap:butt;stroke-linejoin:miter;stroke-miterlimit:22;stroke:#000000;stroke-opacity:1" d="M205.95 33.55L203.6 35.5L230.6 62.45L232.9 60.5L205.95 33.55z" />
<path style="fill:none;stroke-width:0.95;stroke-linecap:butt;stroke-linejoin:miter;stroke-miterlimit:22;stroke:#000000;stroke-opacity:1" d="M119.65 27.2L86.8 27.2L86.8 24.45L119.65 24.45L119.65 27.2z" />
<path style="fill:none;stroke-width:0.95;stroke-linecap:butt;stroke-linejoin:miter;stroke-miterlimit:22;stroke:#000000;stroke-opacity:1" d="M17 27.2L0 27.2L0 24.45L17 24.45L17 27.2z" />
</g>
</svg>
