<?xml version="1.0" encoding="utf-8"?>
<svg version="1.1" id="Layer_1"
xmlns="http://www.w3.org/2000/svg"
xmlns:xlink="http://www.w3.org/1999/xlink"
width="561px" height="4px"
xml:space="preserve">
<g id="PathID_222" transform="matrix(1, 0, 0, 1, -0.55, -0.9)">
<path style="fill:#FF0000;fill-opacity:1" d="M544.05 1.35L561.05 1.35L561.05 4.15L544.05 4.15L544.05 1.35M466.05 4.15L433.2 4.15L433.2 1.35L466.05 1.35L466.05 4.15M353 4.15L320.2 4.15L320.2 1.35L353 1.35L353 4.15M209.15 1.35L242 1.35L242 4.15L209.15 4.15L209.15 1.35M129.2 4.15L96.35 4.15L96.35 1.35L129.2 1.35L129.2 4.15M18 4.15L1 4.15L1 1.35L18 1.35L18 4.15" />
<path style="fill:none;stroke-width:0.95;stroke-linecap:butt;stroke-linejoin:miter;stroke-miterlimit:22;stroke:#000000;stroke-opacity:1" d="M544.05 1.35L561.05 1.35L561.05 4.15L544.05 4.15L544.05 1.35z" />
<path style="fill:none;stroke-width:0.95;stroke-linecap:butt;stroke-linejoin:miter;stroke-miterlimit:22;stroke:#000000;stroke-opacity:1" d="M466.05 4.15L433.2 4.15L433.2 1.35L466.05 1.35L466.05 4.15z" />
<path style="fill:none;stroke-width:0.95;stroke-linecap:butt;stroke-linejoin:miter;stroke-miterlimit:22;stroke:#000000;stroke-opacity:1" d="M353 4.15L320.2 4.15L320.2 1.35L353 1.35L353 4.15z" />
<path style="fill:none;stroke-width:0.95;stroke-linecap:butt;stroke-linejoin:miter;stroke-miterlimit:22;stroke:#000000;stroke-opacity:1" d="M209.15 1.35L242 1.35L242 4.15L209.15 4.15L209.15 1.35z" />
<path style="fill:none;stroke-width:0.95;stroke-linecap:butt;stroke-linejoin:miter;stroke-miterlimit:22;stroke:#000000;stroke-opacity:1" d="M129.2 4.15L96.35 4.15L96.35 1.35L129.2 1.35L129.2 4.15z" />
<path style="fill:none;stroke-width:0.95;stroke-linecap:butt;stroke-linejoin:miter;stroke-miterlimit:22;stroke:#000000;stroke-opacity:1" d="M18 4.15L1 4.15L1 1.35L18 1.35L18 4.15z" />
</g>
</svg>
