<?xml version="1.0" encoding="utf-8"?>
<svg version="1.1" id="Layer_1"
xmlns="http://www.w3.org/2000/svg"
xmlns:xlink="http://www.w3.org/1999/xlink"
width="561px" height="4px"
xml:space="preserve">
<g id="PathID_225" transform="matrix(1, 0, 0, 1, 0.15, -0.4)">
<path style="fill:#00FF00;fill-opacity:1" d="M560.2 3.65L543.2 3.65L543.2 0.85L560.2 0.85L560.2 3.65M464.8 3.65L431.95 3.65L431.95 0.85L464.8 0.85L464.8 3.65M352 3.65L319.2 3.65L319.2 0.85L352 0.85L352 3.65M207.65 0.85L240.5 0.85L240.5 3.65L207.65 3.65L207.65 0.85M128.95 3.65L96.1 3.65L96.1 0.85L128.95 0.85L128.95 3.65M0.3 0.85L17.3 0.85L17.3 3.65L0.3 3.65L0.3 0.85" />
<path style="fill:none;stroke-width:0.95;stroke-linecap:butt;stroke-linejoin:miter;stroke-miterlimit:22;stroke:#000000;stroke-opacity:1" d="M560.2 3.65L543.2 3.65L543.2 0.85L560.2 0.85L560.2 3.65z" />
<path style="fill:none;stroke-width:0.95;stroke-linecap:butt;stroke-linejoin:miter;stroke-miterlimit:22;stroke:#000000;stroke-opacity:1" d="M464.8 3.65L431.95 3.65L431.95 0.85L464.8 0.85L464.8 3.65z" />
<path style="fill:none;stroke-width:0.95;stroke-linecap:butt;stroke-linejoin:miter;stroke-miterlimit:22;stroke:#000000;stroke-opacity:1" d="M352 3.65L319.2 3.65L319.2 0.85L352 0.85L352 3.65z" />
<path style="fill:none;stroke-width:0.95;stroke-linecap:butt;stroke-linejoin:miter;stroke-miterlimit:22;stroke:#000000;stroke-opacity:1" d="M207.65 0.85L240.5 0.85L240.5 3.65L207.65 3.65L207.65 0.85z" />
<path style="fill:none;stroke-width:0.95;stroke-linecap:butt;stroke-linejoin:miter;stroke-miterlimit:22;stroke:#000000;stroke-opacity:1" d="M128.95 3.65L96.1 3.65L96.1 0.85L128.95 0.85L128.95 3.65z" />
<path style="fill:none;stroke-width:0.95;stroke-linecap:butt;stroke-linejoin:miter;stroke-miterlimit:22;stroke:#000000;stroke-opacity:1" d="M0.3 0.85L17.3 0.85L17.3 3.65L0.3 3.65L0.3 0.85z" />
</g>
</svg>
