{"frames": [

{
	"filename": "dog_idle00",
	"frame": {"x":2,"y":2,"w":106,"h":212},
	"rotated": false,
	"trimmed": true,
	"spriteSourceSize": {"x":31,"y":4,"w":106,"h":212},
	"sourceSize": {"w":116,"h":212}
},
{
	"filename": "dog_idle01",
	"frame": {"x":110,"y":2,"w":110,"h":206},
	"rotated": false,
	"trimmed": true,
	"spriteSourceSize": {"x":30,"y":4,"w":110,"h":206},
	"sourceSize": {"w":116,"h":212}
},
{
	"filename": "dog_idle02",
	"frame": {"x":117,"y":425,"w":114,"h":202},
	"rotated": false,
	"trimmed": true,
	"spriteSourceSize": {"x":30,"y":3,"w":114,"h":202},
	"sourceSize": {"w":116,"h":212}
},
{
	"filename": "dog_idle03",
	"frame": {"x":236,"y":203,"w":116,"h":198},
	"rotated": false,
	"trimmed": true,
	"spriteSourceSize": {"x":30,"y":3,"w":116,"h":198},
	"sourceSize": {"w":116,"h":212}
},
{
	"filename": "dog_idle04",
	"frame": {"x":2,"y":632,"w":112,"h":204},
	"rotated": false,
	"trimmed": true,
	"spriteSourceSize": {"x":30,"y":4,"w":112,"h":204},
	"sourceSize": {"w":116,"h":212}
},
{
	"filename": "dog_look_left00",
	"frame": {"x":233,"y":413,"w":111,"h":199},
	"rotated": false,
	"trimmed": true,
	"spriteSourceSize": {"x":30,"y":2,"w":111,"h":199},
	"sourceSize": {"w":145,"h":201}
},
{
	"filename": "dog_look_left01",
	"frame": {"x":123,"y":210,"w":111,"h":201},
	"rotated": false,
	"trimmed": true,
	"spriteSourceSize": {"x":30,"y":3,"w":111,"h":201},
	"sourceSize": {"w":145,"h":201}
},
{
	"filename": "dog_look_left02",
	"frame": {"x":229,"y":629,"w":117,"h":201},
	"rotated": false,
	"trimmed": true,
	"spriteSourceSize": {"x":30,"y":6,"w":117,"h":201},
	"sourceSize": {"w":145,"h":201}
},
{
	"filename": "dog_look_left03",
	"frame": {"x":222,"y":2,"w":123,"h":199},
	"rotated": false,
	"trimmed": true,
	"spriteSourceSize": {"x":20,"y":10,"w":123,"h":199},
	"sourceSize": {"w":145,"h":201}
},
{
	"filename": "dog_look_left04",
	"frame": {"x":347,"y":2,"w":137,"h":195},
	"rotated": false,
	"trimmed": true,
	"spriteSourceSize": {"x":7,"y":13,"w":137,"h":195},
	"sourceSize": {"w":145,"h":201}
},
{
	"filename": "dog_look_left05",
	"frame": {"x":354,"y":199,"w":143,"h":191},
	"rotated": false,
	"trimmed": true,
	"spriteSourceSize": {"x":3,"y":15,"w":143,"h":191},
	"sourceSize": {"w":145,"h":201}
},
{
	"filename": "dog_look_left06",
	"frame": {"x":486,"y":2,"w":145,"h":189},
	"rotated": false,
	"trimmed": true,
	"spriteSourceSize": {"x":2,"y":15,"w":145,"h":189},
	"sourceSize": {"w":145,"h":201}
},
{
	"filename": "dog_look_left07",
	"frame": {"x":499,"y":193,"w":143,"h":187},
	"rotated": false,
	"trimmed": true,
	"spriteSourceSize": {"x":5,"y":15,"w":143,"h":187},
	"sourceSize": {"w":145,"h":201}
},
{
	"filename": "dog_look_left08",
	"frame": {"x":463,"y":392,"w":143,"h":187},
	"rotated": false,
	"trimmed": true,
	"spriteSourceSize": {"x":5,"y":15,"w":143,"h":187},
	"sourceSize": {"w":145,"h":201}
},
{
	"filename": "dog_look_left09",
	"frame": {"x":249,"y":832,"w":135,"h":185},
	"rotated": false,
	"trimmed": true,
	"spriteSourceSize": {"x":7,"y":16,"w":135,"h":185},
	"sourceSize": {"w":145,"h":201}
},
{
	"filename": "dog_look_right00",
	"frame": {"x":233,"y":413,"w":111,"h":199},
	"rotated": false,
	"trimmed": true,
	"spriteSourceSize": {"x":30,"y":2,"w":111,"h":199},
	"sourceSize": {"w":119,"h":207}
},
{
	"filename": "dog_look_right01",
	"frame": {"x":116,"y":632,"w":111,"h":203},
	"rotated": false,
	"trimmed": true,
	"spriteSourceSize": {"x":30,"y":1,"w":111,"h":203},
	"sourceSize": {"w":119,"h":207}
},
{
	"filename": "dog_look_right02",
	"frame": {"x":2,"y":216,"w":119,"h":207},
	"rotated": false,
	"trimmed": true,
	"spriteSourceSize": {"x":30,"y":0,"w":119,"h":207},
	"sourceSize": {"w":119,"h":207}
},
{
	"filename": "dog_look_right03",
	"frame": {"x":2,"y":425,"w":113,"h":205},
	"rotated": false,
	"trimmed": true,
	"spriteSourceSize": {"x":30,"y":4,"w":113,"h":205},
	"sourceSize": {"w":119,"h":207}
},
{
	"filename": "dog_look_right04",
	"frame": {"x":346,"y":403,"w":115,"h":195},
	"rotated": false,
	"trimmed": true,
	"spriteSourceSize": {"x":29,"y":13,"w":115,"h":195},
	"sourceSize": {"w":119,"h":207}
},
{
	"filename": "dog_look_right05",
	"frame": {"x":348,"y":600,"w":117,"h":189},
	"rotated": false,
	"trimmed": true,
	"spriteSourceSize": {"x":29,"y":17,"w":117,"h":189},
	"sourceSize": {"w":119,"h":207}
},
{
	"filename": "dog_look_right06",
	"frame": {"x":633,"y":2,"w":117,"h":185},
	"rotated": false,
	"trimmed": true,
	"spriteSourceSize": {"x":30,"y":19,"w":117,"h":185},
	"sourceSize": {"w":119,"h":207}
},
{
	"filename": "dog_look_right07",
	"frame": {"x":467,"y":581,"w":119,"h":183},
	"rotated": false,
	"trimmed": true,
	"spriteSourceSize": {"x":29,"y":19,"w":119,"h":183},
	"sourceSize": {"w":119,"h":207}
},
{
	"filename": "dog_look_right08",
	"frame": {"x":386,"y":791,"w":119,"h":183},
	"rotated": false,
	"trimmed": true,
	"spriteSourceSize": {"x":29,"y":19,"w":119,"h":183},
	"sourceSize": {"w":119,"h":207}
},
{
	"filename": "dog_look_right09",
	"frame": {"x":134,"y":837,"w":113,"h":181},
	"rotated": false,
	"trimmed": true,
	"spriteSourceSize": {"x":29,"y":20,"w":113,"h":181},
	"sourceSize": {"w":119,"h":207}
},
{
	"filename": "fish00",
	"frame": {"x":588,"y":581,"w":122,"h":128},
	"rotated": false,
	"trimmed": true,
	"spriteSourceSize": {"x":42,"y":18,"w":122,"h":128},
	"sourceSize": {"w":162,"h":142}
},
{
	"filename": "fish01",
	"frame": {"x":588,"y":711,"w":72,"h":50},
	"rotated": false,
	"trimmed": true,
	"spriteSourceSize": {"x":66,"y":66,"w":72,"h":50},
	"sourceSize": {"w":162,"h":142}
},
{
	"filename": "fish02",
	"frame": {"x":644,"y":189,"w":102,"h":88},
	"rotated": false,
	"trimmed": true,
	"spriteSourceSize": {"x":55,"y":48,"w":102,"h":88},
	"sourceSize": {"w":162,"h":142}
},
{
	"filename": "fish03",
	"frame": {"x":644,"y":279,"w":110,"h":94},
	"rotated": false,
	"trimmed": true,
	"spriteSourceSize": {"x":48,"y":49,"w":110,"h":94},
	"sourceSize": {"w":162,"h":142}
},
{
	"filename": "fish04",
	"frame": {"x":653,"y":787,"w":88,"h":102},
	"rotated": false,
	"trimmed": true,
	"spriteSourceSize": {"x":49,"y":53,"w":88,"h":102},
	"sourceSize": {"w":162,"h":142}
},
{
	"filename": "fish05",
	"frame": {"x":730,"y":375,"w":90,"h":106},
	"rotated": false,
	"trimmed": true,
	"spriteSourceSize": {"x":47,"y":62,"w":90,"h":106},
	"sourceSize": {"w":162,"h":142}
},
{
	"filename": "fish06",
	"frame": {"x":743,"y":740,"w":90,"h":90},
	"rotated": false,
	"trimmed": true,
	"spriteSourceSize": {"x":50,"y":78,"w":90,"h":90},
	"sourceSize": {"w":162,"h":142}
},
{
	"filename": "fish07",
	"frame": {"x":756,"y":316,"w":92,"h":54},
	"rotated": false,
	"trimmed": true,
	"spriteSourceSize": {"x":51,"y":95,"w":92,"h":54},
	"sourceSize": {"w":162,"h":142}
},
{
	"filename": "fish08",
	"frame": {"x":608,"y":382,"w":120,"h":122},
	"rotated": false,
	"trimmed": true,
	"spriteSourceSize": {"x":45,"y":20,"w":120,"h":122},
	"sourceSize": {"w":162,"h":142}
},
{
	"filename": "fish09",
	"frame": {"x":653,"y":891,"w":118,"h":92},
	"rotated": false,
	"trimmed": true,
	"spriteSourceSize": {"x":51,"y":59,"w":118,"h":92},
	"sourceSize": {"w":162,"h":142}
},
{
	"filename": "fish10",
	"frame": {"x":507,"y":898,"w":144,"h":120},
	"rotated": false,
	"trimmed": true,
	"spriteSourceSize": {"x":42,"y":42,"w":144,"h":120},
	"sourceSize": {"w":162,"h":142}
},
{
	"filename": "fish11",
	"frame": {"x":507,"y":766,"w":144,"h":130},
	"rotated": false,
	"trimmed": true,
	"spriteSourceSize": {"x":44,"y":28,"w":144,"h":130},
	"sourceSize": {"w":162,"h":142}
},
{
	"filename": "fish12",
	"frame": {"x":2,"y":838,"w":130,"h":142},
	"rotated": false,
	"trimmed": true,
	"spriteSourceSize": {"x":60,"y":28,"w":130,"h":142},
	"sourceSize": {"w":162,"h":142}
},
{
	"filename": "fish13",
	"frame": {"x":712,"y":580,"w":158,"h":76},
	"rotated": false,
	"trimmed": true,
	"spriteSourceSize": {"x":8,"y":98,"w":158,"h":76},
	"sourceSize": {"w":162,"h":142}
},
{
	"filename": "fish14",
	"frame": {"x":752,"y":2,"w":162,"h":66},
	"rotated": false,
	"trimmed": true,
	"spriteSourceSize": {"x":13,"y":83,"w":162,"h":66},
	"sourceSize": {"w":162,"h":142}
},
{
	"filename": "fish15",
	"frame": {"x":752,"y":154,"w":160,"h":72},
	"rotated": false,
	"trimmed": true,
	"spriteSourceSize": {"x":9,"y":79,"w":160,"h":72},
	"sourceSize": {"w":162,"h":142}
},
{
	"filename": "fish16",
	"frame": {"x":712,"y":658,"w":150,"h":80},
	"rotated": false,
	"trimmed": true,
	"spriteSourceSize": {"x":5,"y":86,"w":150,"h":80},
	"sourceSize": {"w":162,"h":142}
},
{
	"filename": "fish17",
	"frame": {"x":756,"y":228,"w":158,"h":86},
	"rotated": false,
	"trimmed": true,
	"spriteSourceSize": {"x":0,"y":79,"w":158,"h":86},
	"sourceSize": {"w":162,"h":142}
},
{
	"filename": "fish18",
	"frame": {"x":752,"y":70,"w":160,"h":82},
	"rotated": false,
	"trimmed": true,
	"spriteSourceSize": {"x":0,"y":73,"w":160,"h":82},
	"sourceSize": {"w":162,"h":142}
},
{
	"filename": "fish19",
	"frame": {"x":773,"y":904,"w":140,"h":84},
	"rotated": false,
	"trimmed": true,
	"spriteSourceSize": {"x":15,"y":64,"w":140,"h":84},
	"sourceSize": {"w":162,"h":142}
},
{
	"filename": "fish20",
	"frame": {"x":850,"y":316,"w":56,"h":74},
	"rotated": false,
	"trimmed": true,
	"spriteSourceSize": {"x":105,"y":54,"w":56,"h":74},
	"sourceSize": {"w":162,"h":142}
},
{
	"filename": "fish21",
	"frame": {"x":662,"y":711,"w":44,"h":74},
	"rotated": false,
	"trimmed": true,
	"spriteSourceSize": {"x":109,"y":49,"w":44,"h":74},
	"sourceSize": {"w":162,"h":142}
},
{
	"filename": "fish22",
	"frame": {"x":1200,"y":516,"w":32,"h":80},
	"rotated": false,
	"trimmed": true,
	"spriteSourceSize": {"x":124,"y":43,"w":32,"h":80},
	"sourceSize": {"w":162,"h":142}
},
{
	"filename": "fish23",
	"frame": {"x":858,"y":392,"w":44,"h":82},
	"rotated": false,
	"trimmed": true,
	"spriteSourceSize": {"x":122,"y":32,"w":44,"h":82},
	"sourceSize": {"w":162,"h":142}
},
{
	"filename": "fish24",
	"frame": {"x":822,"y":392,"w":34,"h":84},
	"rotated": false,
	"trimmed": true,
	"spriteSourceSize": {"x":140,"y":32,"w":34,"h":84},
	"sourceSize": {"w":162,"h":142}
},
{
	"filename": "Spot00",
	"frame": {"x":915,"y":904,"w":274,"h":64},
	"rotated": false,
	"trimmed": true,
	"spriteSourceSize": {"x":43,"y":21,"w":274,"h":64},
	"sourceSize": {"w":348,"h":80}
},
{
	"filename": "Spot01",
	"frame": {"x":918,"y":516,"w":280,"h":66},
	"rotated": false,
	"trimmed": true,
	"spriteSourceSize": {"x":40,"y":20,"w":280,"h":66},
	"sourceSize": {"w":348,"h":80}
},
{
	"filename": "Spot02",
	"frame": {"x":918,"y":446,"w":286,"h":68},
	"rotated": false,
	"trimmed": true,
	"spriteSourceSize": {"x":37,"y":19,"w":286,"h":68},
	"sourceSize": {"w":348,"h":80}
},
{
	"filename": "Spot03",
	"frame": {"x":918,"y":298,"w":290,"h":68},
	"rotated": false,
	"trimmed": true,
	"spriteSourceSize": {"x":35,"y":20,"w":290,"h":68},
	"sourceSize": {"w":348,"h":80}
},
{
	"filename": "Spot04",
	"frame": {"x":918,"y":226,"w":296,"h":70},
	"rotated": false,
	"trimmed": true,
	"spriteSourceSize": {"x":32,"y":19,"w":296,"h":70},
	"sourceSize": {"w":348,"h":80}
},
{
	"filename": "Spot05",
	"frame": {"x":918,"y":154,"w":302,"h":70},
	"rotated": false,
	"trimmed": true,
	"spriteSourceSize": {"x":29,"y":19,"w":302,"h":70},
	"sourceSize": {"w":348,"h":80}
},
{
	"filename": "Spot06",
	"frame": {"x":608,"y":506,"w":308,"h":72},
	"rotated": false,
	"trimmed": true,
	"spriteSourceSize": {"x":25,"y":18,"w":308,"h":72},
	"sourceSize": {"w":348,"h":80}
},
{
	"filename": "Spot07",
	"frame": {"x":918,"y":2,"w":314,"h":74},
	"rotated": false,
	"trimmed": true,
	"spriteSourceSize": {"x":22,"y":17,"w":314,"h":74},
	"sourceSize": {"w":348,"h":80}
},
{
	"filename": "Spot08",
	"frame": {"x":914,"y":78,"w":320,"h":74},
	"rotated": false,
	"trimmed": true,
	"spriteSourceSize": {"x":19,"y":18,"w":320,"h":74},
	"sourceSize": {"w":348,"h":80}
},
{
	"filename": "Spot09",
	"frame": {"x":908,"y":368,"w":326,"h":76},
	"rotated": false,
	"trimmed": true,
	"spriteSourceSize": {"x":16,"y":17,"w":326,"h":76},
	"sourceSize": {"w":348,"h":80}
},
{
	"filename": "Spot10",
	"frame": {"x":835,"y":822,"w":322,"h":80},
	"rotated": false,
	"trimmed": true,
	"spriteSourceSize": {"x":13,"y":15,"w":322,"h":80},
	"sourceSize": {"w":348,"h":80}
},
{
	"filename": "Spot11",
	"frame": {"x":835,"y":740,"w":338,"h":80},
	"rotated": false,
	"trimmed": true,
	"spriteSourceSize": {"x":10,"y":16,"w":338,"h":80},
	"sourceSize": {"w":348,"h":80}
},
{
	"filename": "Spot12",
	"frame": {"x":872,"y":584,"w":326,"h":74},
	"rotated": false,
	"trimmed": true,
	"spriteSourceSize": {"x":10,"y":18,"w":326,"h":74},
	"sourceSize": {"w":348,"h":80}
},
{
	"filename": "Spot13",
	"frame": {"x":864,"y":660,"w":348,"h":78},
	"rotated": false,
	"trimmed": true,
	"spriteSourceSize": {"x":0,"y":16,"w":348,"h":78},
	"sourceSize": {"w":348,"h":80}
},
{
	"filename": "Spot14",
	"frame": {"x":915,"y":904,"w":274,"h":64},
	"rotated": false,
	"trimmed": true,
	"spriteSourceSize": {"x":43,"y":21,"w":274,"h":64},
	"sourceSize": {"w":348,"h":80}
}],
"meta": {
	"app": "http://www.texturepacker.com",
	"version": "1.0",
	"image": "dog_fish_spot_sprite.png",
	"format": "RGBA8888",
	"size": {"w":1236,"h":1020},
	"scale": "0.2",
	"smartupdate": "$TexturePacker:SmartUpdate:fb56f261b1eb04e3215824426595f64c$"
}
}