{"frames": [

{
	"filename": "dog_idle00",
	"frame": {"x":2,"y":2,"w":106,"h":212},
	"rotated": false,
	"trimmed": true,
	"spriteSourceSize": {"x":31,"y":4,"w":106,"h":212},
	"sourceSize": {"w":116,"h":212}
},
{
	"filename": "dog_idle01",
	"frame": {"x":110,"y":2,"w":110,"h":206},
	"rotated": false,
	"trimmed": true,
	"spriteSourceSize": {"x":30,"y":4,"w":110,"h":206},
	"sourceSize": {"w":116,"h":212}
},
{
	"filename": "dog_idle02",
	"frame": {"x":117,"y":425,"w":114,"h":202},
	"rotated": false,
	"trimmed": true,
	"spriteSourceSize": {"x":30,"y":3,"w":114,"h":202},
	"sourceSize": {"w":116,"h":212}
},
{
	"filename": "dog_idle03",
	"frame": {"x":236,"y":203,"w":116,"h":198},
	"rotated": false,
	"trimmed": true,
	"spriteSourceSize": {"x":30,"y":3,"w":116,"h":198},
	"sourceSize": {"w":116,"h":212}
},
{
	"filename": "dog_idle04",
	"frame": {"x":2,"y":632,"w":112,"h":204},
	"rotated": false,
	"trimmed": true,
	"spriteSourceSize": {"x":30,"y":4,"w":112,"h":204},
	"sourceSize": {"w":116,"h":212}
}],
"meta": {
	"app": "http://www.texturepacker.com",
	"version": "1.0",
	"image": "dog_fish_spot_sprite.png",
	"format": "RGBA8888",
	"size": {"w":1236,"h":1020},
	"scale": "0.2",
	"smartupdate": "$TexturePacker:SmartUpdate:fb56f261b1eb04e3215824426595f64c$"
}
}